<svg width="81" height="77" viewBox="0 0 81 77" fill="none" xmlns="http://www.w3.org/2000/svg">
<g clip-path="url(#clip0)">
<path d="M80.0313 21.1274C80.0313 13.2548 74.1841 6.875 66.9688 6.875C59.7534 6.875 53.9063 13.2548 53.9063 21.1274C53.9063 22.1672 53.9062 24.1651 53.9062 24.1651C53.9062 24.1651 53.9063 25.398 53.9063 26.059L53.9062 52.0758C53.9062 55.21 56.2342 57.75 59.1067 57.75H59.2225C62.095 57.75 64.423 55.21 64.423 52.0758V41.418V21.8553C64.423 20.2882 65.5869 19.0182 67.0232 19.0182C68.4595 19.0182 69.6235 20.2882 69.6235 21.8553V26.059V30.0844C69.6235 33.2186 71.9514 35.7586 74.8239 35.7586C77.6965 35.7586 80.0244 33.2186 80.0244 30.0844V23.5635C80.0244 23.2516 79.9972 22.9396 79.9496 22.6425C80.004 22.1375 80.0313 21.6325 80.0313 21.1274Z" fill="#8063C7"/>
<path d="M5.59562 12.6912C8.53067 12.6912 10.91 10.3119 10.91 7.37687C10.91 4.44183 8.53067 2.0625 5.59562 2.0625C2.66058 2.0625 0.28125 4.44183 0.28125 7.37687C0.28125 10.3119 2.66058 12.6912 5.59562 12.6912Z" fill="#8063C7"/>
<path d="M26.6675 61.9717C26.6675 59.0705 24.3163 56.7192 21.415 56.7192C18.5138 56.7192 16.1625 59.0705 16.1625 61.9717V65.3611V62.1024C16.1625 63.553 14.9869 64.7286 13.5363 64.7286C12.0856 64.7286 10.91 63.553 10.91 62.1024V50.7724V22.4474V21.0174C10.2844 18.8105 8.26313 17.188 5.85688 17.188H5.53375C2.6325 17.2017 0.28125 19.553 0.28125 22.4542V62.7555C0.28125 62.9205 0.288125 63.0786 0.30875 63.2367C0.301875 63.3949 0.28125 63.553 0.28125 63.718C0.28125 71.0055 6.18688 76.9111 13.4744 76.9111C20.7619 76.9111 26.6675 71.0055 26.6675 63.718C26.6675 63.6286 26.6538 63.5392 26.6538 63.443C26.6606 63.3536 26.6675 63.2642 26.6675 63.168V61.9717Z" fill="#8063C7"/>
<rect x="16.0938" y="2.0625" width="10.3125" height="50.1875" rx="5.15625" fill="#8063C7"/>
<path d="M51.1887 5.68922C49.5974 3.00829 46.0598 2.17701 43.7309 4.2496C39.2849 8.20628 35.7135 13.1733 33.3026 18.8059C30.1189 26.2443 29.102 34.5094 30.3808 42.5561C31.6595 50.6028 35.1763 58.0696 40.4865 64.0124C44.5046 68.5091 49.4129 71.9804 54.8354 74.1988C57.7088 75.3743 60.7609 73.4476 61.4262 70.4151C62.0707 67.4776 60.2156 64.6118 57.4871 63.3471C53.9856 61.7241 50.8113 59.3711 48.1652 56.4098C44.2834 52.0657 41.7127 46.6074 40.7779 40.7254C39.8432 34.8433 40.5865 28.8015 42.9138 23.3641C44.5363 19.5732 46.878 16.1949 49.7756 13.4255C51.8872 11.4075 52.6795 8.20096 51.1887 5.68922Z" fill="#8063C7"/>
<path d="M72.2831 76.6292C75.2182 76.6292 77.5975 74.2499 77.5975 71.3149C77.5975 68.3798 75.2182 66.0005 72.2831 66.0005C69.3481 66.0005 66.9688 68.3798 66.9688 71.3149C66.9688 74.2499 69.3481 76.6292 72.2831 76.6292Z" fill="#8063C7"/>
<rect x="10.5938" y="2.75049" width="5.5" height="73.5625" rx="2.75" fill="#FCFCFC"/>
<rect x="64.9062" y="8.25" width="5.5" height="41.25" rx="2.75" fill="#FCFCFC"/>
</g>
<defs>
<clipPath id="clip0">
<rect width="80.4375" height="77" fill="white" transform="translate(0.28125)"/>
</clipPath>
</defs>
</svg>
